{
  "total": 5155,
  "per_page": 12,
  "current_page": 1,
  "last_page": 430,
  "next_page_url": "https://animepahe.ru/api?page=2",
  "prev_page_url": null,
  "from": 1,
  "to": 12,
  "data": [
    {
      "id": 63231,
      "anime_id": 5588,
      "anime_title": "Isekai Suicide Squad",
      "anime_session": "6d0a571d-5d8e-88fe-1f4b-2498c9f8229b",
      "episode": 5,
      "episode2": 0,
      "edition": "",
      "fansub": "Amazon",
      "snapshot": "https://i.animepahe.ru/snapshots/89b8bdb42c6d6b05bd486d595d5f69fb8d2db804adf90526b2aac1744334da44.jpg",
      "disc": "",
      "session": "e01211441c44ed73a9bb03edbfacd960e16db194bbe8fee99d0f5a896a60a1ed",
      "filler": 0,
      "created_at": "2024-07-11 08:27:57",
      "completed": 0
    },
    {
      "id": 63230,
      "anime_id": 5630,
      "anime_title": "Kimi to Boku no Saigo no Senjou, Aruiwa Sekai ga Hajimaru Seisen Season II",
      "anime_session": "819dd0f8-38b6-0994-40f4-8d43f638e850",
      "episode": 1,
      "episode2": 0,
      "edition": "",
      "fansub": "SubsPlease",
      "snapshot": "https://i.animepahe.ru/snapshots/4b5420e2812473fc87747de042acde891443532289d3d25cff4401e49e6a5762.jpg",
      "disc": "",
      "session": "b452075d7e39f217df24135759e5d4f0c3079f2729db7b5f7b365d2ef0e08148",
      "filler": 0,
      "created_at": "2024-07-11 03:39:32",
      "completed": 0
    },
    {
      "id": 63229,
      "anime_id": 5629,
      "anime_title": "Koi wa Futago de Warikirenai",
      "anime_session": "ad0dc9e8-95d6-6507-04f1-133e59514867",
      "episode": 1,
      "episode2": 0,
      "edition": "",
      "fansub": "SubsPlease",
      "snapshot": "https://i.animepahe.ru/snapshots/e48bc1b9be93b63dd17e15cc60498fa5f5dcb6184aee143c20816a68f960c7c3.jpg",
      "disc": "",
      "session": "e29cbc589e03106252efb04ffa50295f1367c31448936bbfe0b903b3e0830318",
      "filler": 0,
      "created_at": "2024-07-10 15:22:23",
      "completed": 0
    },
    {
      "id": 63228,
      "anime_id": 5594,
      "anime_title": "Tokidoki Bosotto Russia-go de Dereru Tonari no Alya-san",
      "anime_session": "40ac2851-9913-c4cc-7d0e-be5dfd925bda",
      "episode": 2,
      "episode2": 0,
      "edition": "",
      "fansub": "SubsPlease",
      "snapshot": "https://i.animepahe.ru/snapshots/96b8264bc99751508a11b21323cade758229978e8ff03c62c468ddab38e6c798.jpg",
      "disc": "",
      "session": "0f06c3d6d6ced4109bbb0d2c8816743901ae56b8d8f6c17b96b205f38ef250fb",
      "filler": 0,
      "created_at": "2024-07-10 15:07:34",
      "completed": 0
    },
    {
      "id": 63227,
      "anime_id": 5595,
      "anime_title": "\"Oshi no Ko\" 2nd Season",
      "anime_session": "04aa2f20-30ce-ec91-1520-c78e516484b9",
      "episode": 13,
      "episode2": 0,
      "edition": "",
      "fansub": "SubsPlease",
      "snapshot": "https://i.animepahe.ru/snapshots/15a1c68d148693bef271698dc8c60657baadad2db9d0e0b9d3144bb3e685b818.jpg",
      "disc": "",
      "session": "ae24e02c8c224357e680c264ccc1fb399a5df6f5061ddfde5bc4e82ecf3a3eee",
      "filler": 0,
      "created_at": "2024-07-10 15:05:33",
      "completed": 0
    },
    {
      "id": 63226,
      "anime_id": 5589,
      "anime_title": "Maougun Saikyou no Majutsushi wa Ningen datta",
      "anime_session": "beaa1ba4-408f-b0b5-4d63-95e3d0f30e40",
      "episode": 3,
      "episode2": 0,
      "edition": "",
      "fansub": "SubsPlease",
      "snapshot": "https://i.animepahe.ru/snapshots/3961fbbca284e685cc85b61de0c7f6c1a319d9b07681b7f311c3cc5dcf22b8f1.jpg",
      "disc": "",
      "session": "b1166860fe232dd41a4961a9a7aa6bd5eb6aef38b8b085c35faaf5bf6cbe36a1",
      "filler": 0,
      "created_at": "2024-07-10 14:05:29",
      "completed": 0
    },
    {
      "id": 63225,
      "anime_id": 5596,
      "anime_title": "Tasuuketsu",
      "anime_session": "d63da6d4-f37e-8136-cfb9-baad986b48eb",
      "episode": 2,
      "episode2": 0,
      "edition": "",
      "fansub": "SubsPlease",
      "snapshot": "https://i.animepahe.ru/snapshots/6729dcb57e4723a71bc7a7f2442f75764e94632c5a02e0b75d078b307a2e9b6c.jpg",
      "disc": "",
      "session": "5ba3d714369037269af3ac31e03f0fc318f8dac80b965418e4174fcba1d9bfbb",
      "filler": 0,
      "created_at": "2024-07-09 19:05:40",
      "completed": 0
    },
    {
      "id": 63224,
      "anime_id": 5641,
      "anime_title": "Don't Give Up!",
      "anime_session": "1ab126fb-5d76-5b7e-4ba1-0848cae5a763",
      "episode": 2,
      "episode2": 0,
      "edition": "",
      "fansub": "B-Global",
      "snapshot": "https://i.animepahe.ru/snapshots/c1cc4fa4a0cb09913aa616ccc6efe192f2cc58dba39eadcd7b8f8da4274b2410.jpg",
      "disc": "",
      "session": "f4e561c9e17e8477505183eb4850f42f8316ead70da63268b0eb83b8188c948a",
      "filler": 0,
      "created_at": "2024-07-09 16:04:22",
      "completed": 0
    },
    {
      "id": 63222,
      "anime_id": 5571,
      "anime_title": "The Boy and the Heron",
      "anime_session": "1eef7308-da60-177b-5345-cbbe01e88aef",
      "episode": 1,
      "episode2": 0,
      "edition": "",
      "fansub": "Okay-Subs",
      "snapshot": "https://i.animepahe.ru/snapshots/9954f4a52469c642ffa355be65f91bc29dfbcff7c4def06c817e395df62a6254.jpg",
      "disc": "BD",
      "session": "1ebc7059eb819120994f8614490a20d407c6da7f1473fad4704b02b004bd1489",
      "filler": 0,
      "created_at": "2024-07-09 15:48:18",
      "completed": 1
    },
    {
      "id": 63221,
      "anime_id": 5626,
      "anime_title": "Katsute Mahou Shoujo to Aku wa Tekitai shiteita.",
      "anime_session": "f0f6c8e2-1dd9-b3c9-45b2-de5b7cf4947e",
      "episode": 1,
      "episode2": 0,
      "edition": "",
      "fansub": "SubsPlease",
      "snapshot": "https://i.animepahe.ru/snapshots/d2de05f8d93408de18e4334bdb930162b9b31ed13341c618b49b071b1327f41a.jpg",
      "disc": "",
      "session": "260d2b74998f229668d29ea9ac28c29ca135824f6dc7ef33a81b5bed17f1f7ce",
      "filler": 0,
      "created_at": "2024-07-09 15:43:46",
      "completed": 0
    },
    {
      "id": 63220,
      "anime_id": 5628,
      "anime_title": "Isekai Shikkaku",
      "anime_session": "271c8398-576d-6d6f-bb76-40a79096598a",
      "episode": 1,
      "episode2": 0,
      "edition": "",
      "fansub": "SubsPlease",
      "snapshot": "https://i.animepahe.ru/snapshots/bfa8305b18203075cc523172f324d435694b00e2269900f5d2783d2fb2536235.jpg",
      "disc": "",
      "session": "ecd59ae64d491d074d6f3a2af5762d287538516990cb0566129f98a3c2e5d8dd",
      "filler": 0,
      "created_at": "2024-07-09 15:04:45",
      "completed": 0
    },
    {
      "id": 63219,
      "anime_id": 5515,
      "anime_title": "Ookami to Koushinryou: Merchant Meets the Wise Wolf",
      "anime_session": "6ddf48b7-ebd5-5b28-30d0-a6f17962d146",
      "episode": 15,
      "episode2": 0,
      "edition": "",
      "fansub": "SubsPlease",
      "snapshot": "https://i.animepahe.ru/snapshots/345b36ddb0d1021e6a1fee11363302d8188d7a2e95661f3328f791c0a5254ad9.jpg",
      "disc": "",
      "session": "ca3421f5e49acd0258baa6b9b71d1c8f5931a40a40eaacb1031642a7f0fa077f",
      "filler": 0,
      "created_at": "2024-07-08 18:05:16",
      "completed": 0
    }
  ]
}